<svg xmlns="http://www.w3.org/2000/svg" width="40" height="20" viewBox="0 0 40 20">
    <line stroke-dasharray="5, 5" x1="0" y1="10" x2="40" y2="10" stroke="black"/>
    <line x1="20" y1="10" x2="20" y2="0" stroke="black"/>
</svg>